{
    "config": {
        "framework": "{{framework}}",
        "name": "v-sitebuilder-plugin",
        "platform": "wordpress",
        "proxy": "https://v-sitebuilder-plugin.local",
        "type": "plugin"
    },
    "paths": {
        "dist": "dist/",
        "source": "conf/"
    },
    "project": {
        "blocks": {
            "dist": "conf/",
            "src": "./src/conf/**/*.json",
            "watch": "./src/conf/**/v-block-*.json"
        },
        "components": {
            "dist": "components/",
            "src": "./src/assets/components/Index.jsx",
            "watch": "../src/assets/components/**/*.jsx"
        },
        "conf": {
            "dist": "conf/",
            "src": "./src/conf/**/*.json",
            "watch": "./src/conf/**/v-style-*.json"
        },
        "fonts": {
            "dist": "fonts/",
            "src": "./src/assets/fonts/**/*",
            "watch": "./src/assets/fonts/**/*"
        },
        "htdocs": {
            "dist": "",
            "src": "./src/htdocs/**/*",
            "watch": "./src/htdocs/**/*"
        },
        "images": {
            "dist": "images/",
            "src": "./src/assets/images/**/*",
            "watch": "./src/assets/images/**/*"
        },
        "scripts": {
            "dist": "js/",
            "src": "./src/assets/scripts/main/*.js",
            "watch": "./src/assets/scripts/**/*"
        },
        "styles": {
            "dist": "css/",
            "src": "./src/assets/styles/**/*.scss",
            "watch": "./src/assets/styles/**/*.scss"
        }
    }
}
